^D:\TRABAJO\SEPTIMO SEMESTRE\SISTEMAS INTELIGENTES\PROBLEMANREINAS\PROBLEMANREINAS\DEBUG\GRAFOBFS.OBJ|D:\TRABAJO\SEPTIMO SEMESTRE\SISTEMAS INTELIGENTES\PROBLEMANREINAS\PROBLEMANREINAS\DEBUG\SOURCE.OBJ|D:\TRABAJO\SEPTIMO SEMESTRE\SISTEMAS INTELIGENTES\PROBLEMANREINAS\PROBLEMANREINAS\DEBUG\TABLERO.OBJ
/OUT:"D:\TRABAJO\SEPTIMO SEMESTRE\SISTEMAS INTELIGENTES\PROBLEMANREINAS\DEBUG\PROBLEMANREINAS.EXE" /INCREMENTAL /NOLOGO KERNEL32.LIB USER32.LIB GDI32.LIB WINSPOOL.LIB COMDLG32.LIB ADVAPI32.LIB SHELL32.LIB OLE32.LIB OLEAUT32.LIB UUID.LIB ODBC32.LIB ODBCCP32.LIB /MANIFEST /MANIFESTUAC:"level='asInvoker' uiAccess='false'" /manifest:embed /DEBUG:FASTLINK /PDB:"D:\TRABAJO\SEPTIMO SEMESTRE\SISTEMAS INTELIGENTES\PROBLEMANREINAS\DEBUG\PROBLEMANREINAS.PDB" /SUBSYSTEM:CONSOLE /TLBID:1 /DYNAMICBASE /NXCOMPAT /IMPLIB:"D:\TRABAJO\SEPTIMO SEMESTRE\SISTEMAS INTELIGENTES\PROBLEMANREINAS\DEBUG\PROBLEMANREINAS.LIB" /MACHINE:X86 DEBUG\GRAFOBFS.OBJ
DEBUG\SOURCE.OBJ
DEBUG\TABLERO.OBJ
